Part 3: Working with large-scale data – Workshop: Introduction to Computational Studies in Education and the Social Sciences
…
Step 6: Geographic Distribution

HBCUs by state

hbcu %>%
  count(state, sort = TRUE)

# A tibble: 21 × 2
   state     n
   <fct> <int>
 1 AL       14
 2 GA       10
 3 NC       10
 4 TX        9
 5 SC        8
 6 MS        7
 7 LA        6
 8 TN        6
 9 AR        4
10 FL        4
# ℹ 11 more rows
…
